Chapter 3 创建日志文件 | Process Mining
…
## 4 traces 
## 4 cases 
## 34724 instances of 11 activities 
## 16 resources 
## Events occurred from 2006-06-17 until 2012-03-26 
##  
## # Variables were mapped as follows:
## Case identifier:     vehicleclass 
## Activity identifier:     activity 
## Resource identifier:     resource 
## Activity instance identifier:    activity_instance_id 
## Timestamp:           timestamp 
## Lifecycle transition:        lifecycle 
## 
## # A tibble: 34,724 × 18
##    case_id activity        lifecycle resource timestamp           amount article
##    <chr>   <fct>           <fct>     <fct>    <dttm>              <chr>    <dbl>
##  1 A1      Create Fine     complete  561      2006-07-24 00:00:00 35.0       157
##  2 A1      Send Fine       complete  <NA>     2006-12-05 00:00:00 <NA>        NA
##  3 A100    Create Fine     complete  561      2006-08-02 00:00:00 35.0       157
##  4 A100    Send Fine       complete  <NA>     2006-12-12 00:00:00 <NA>        NA
##  5 A100    Insert Fine No… complete  <NA>     2007-01-15 00:00:00 <NA>        NA
##  6 A100    Add penalty     complete  <NA>     2007-03-16 00:00:00 71.5        NA
##  7 A100    Send for Credi… complete  <NA>     2009-03-30 00:00:00 <NA>        NA
##  8 A10000  Create Fine     complete  561      2007-03-09 00:00:00 36.0       157
##  9 A10000  Send Fine       complete  <NA>     2007-07-17 00:00:00 <NA>        NA
## 10 A10000  Insert Fine No… complete  <NA>     2007-08-02 00:00:00 <NA>        NA
## # ℹ 34,714 more rows
## # ℹ 11 more variables: dismissal <chr>, expense <chr>, lastsent <chr>,
## #   matricola <dbl>, notificationtype <chr>, paymentamount <dbl>, points <dbl>,
## #   totalpaymentamount <chr>, vehicleclass <chr>, activity_instance_id <chr>,
## #   .order <int>
…
## 44 traces 
## 10000 cases 
## 34724 instances of 11 activities 
## 16 resources 
## Events occurred from 2006-06-17 until 2012-03-26 
##  
## # Variables were mapped as follows:
## Case identifier:     case_id 
## Activity identifier:     activity 
## Resource identifier:     resource 
## Activity instance identifier:    activity_instance_id 
## Timestamp:           timestamp 
## Lifecycle transition:        lifecycle 
## 
## # A tibble: 34,724 × 18
##    case_id activity        lifecycle resource timestamp           amount article
##    <chr>   <fct>           <fct>     <fct>    <dttm>              <chr>    <dbl>
##  1 A1      Create Fine     complete  561      2006-07-24 00:00:00 35.0       157
##  2 A1      Send Fine       complete  <NA>     2006-12-05 00:00:00 <NA>        NA
##  3 A100    Create Fine     complete  561      2006-08-02 00:00:00 35.0       157
##  4 A100    Send Fine       complete  <NA>     2006-12-12 00:00:00 <NA>        NA
##  5 A100    Insert Fine No… complete  <NA>     2007-01-15 00:00:00 <NA>        NA
##  6 A100    Add penalty     complete  <NA>     2007-03-16 00:00:00 71.5        NA
##  7 A100    Send for Credi… complete  <NA>     2009-03-30 00:00:00 <NA>        NA
##  8 A10000  Create Fine     complete  561      2007-03-09 00:00:00 36.0       157
##  9 A10000  Send Fine       complete  <NA>     2007-07-17 00:00:00 <NA>        NA
## 10 A10000  Insert Fine No… complete  <NA>     2007-08-02 00:00:00 <NA>        NA
## # ℹ 34,714 more rows
## # ℹ 11 more variables: dismissal <chr>, expense <chr>, lastsent <chr>,
## #   matricola <dbl>, notificationtype <chr>, paymentamount <dbl>, points <dbl>,
## #   totalpaymentamount <chr>, vehicleclass <chr>, activity_instance_id <chr>,
## #   .order <int>
…
## # A tibble: 7 × 3
##   handling              absolute_frequency relative_frequency
##   <fct>                              <int>              <dbl>
## 1 Registration                         500             0.184 
## 2 Triage and Assessment                500             0.184 
## 3 Discuss Results                      495             0.182 
## 4 Check-out                            492             0.181 
## 5 X-Ray                                261             0.0959
## 6 Blood test                           237             0.0871
## 7 MRI SCAN                             236             0.0867

patients %>% cases()

## # A tibble: 500 × 10
##    patient trace_length number_of_activities start_timestamp    
##    <chr>          <int>                <int> <dttm>             
##  1 1                  6                    6 2017-01-02 11:41:53
##  2 10                 5                    5 2017-01-06 05:58:54
##  3 100                5                    5 2017-04-11 16:34:31
##  4 101                5                    5 2017-04-16 06:38:58
##  5 102                5                    5 2017-04-16 06:38:58
##  6 103                6                    6 2017-04-19 20:22:01
##  7 104                6                    6 2017-04-19 20:22:01
##  8 105                6                    6 2017-04-21 02:19:09
##  9 106                6                    6 2017-04-21 02:19:09
## 10 107                5                    5 2017-04-22 18:32:16
## # ℹ 490 more rows
## # ℹ 6 more variables: complete_timestamp <dttm>, trace <chr>, trace_id <dbl>,
## #   duration <drtn>, first_activity <fct>, last_activity <fct>
…
