Chapter 5 可视化 | Process Mining
…
还可以修改图形中的元素

animate_process(patients, mapping = token_aes(size = token_scale(12), shape = "rect",color = token_scale("red")))

5.5 Process Matrix

过程矩阵是一个二维矩阵，显示活动之间的流动。

5.5.1 频率过程矩阵

traffic_fines %>%
    process_matrix(frequency("absolute")) 

## # A tibble: 47 × 3
##    antecedent      consequent                                n
##    <fct>           <fct>                                 <dbl>
##  1 Add penalty     Insert Date Appeal to Prefecture         41
##  2 Add penalty     Notify Result Appeal to Offender          3
##  3 Add penalty     Payment                                1117
##  4 Add penalty     Receive Result Appeal from Prefecture    15
##  5 Add penalty     Send Appeal to Prefecture               171
##  6 Add penalty     Send for Credit Collection             3288
##  7 Appeal to Judge Add penalty                              13
##  8 Appeal to Judge End                                       5
##  9 Appeal to Judge Insert Date Appeal to Prefecture          1
## 10 Create Fine     Payment                                3443
## # ℹ 37 more rows
…
5.5.2 性能过程矩阵

显示两个activity 之间的性能

traffic_fines %>%
    process_matrix(performance(FUN = mean, units = "weeks"))

## # A tibble: 47 × 4
##    antecedent      consequent                                n flow_time
##    <fct>           <fct>                                 <dbl>     <dbl>
##  1 Add penalty     Insert Date Appeal to Prefecture         41     9.43 
##  2 Add penalty     Notify Result Appeal to Offender          3    11.1  
##  3 Add penalty     Payment                                1117    25.1  
##  4 Add penalty     Receive Result Appeal from Prefecture    15     6.96 
##  5 Add penalty     Send Appeal to Prefecture               171    36.4  
##  6 Add penalty     Send for Credit Collection             3288    69.7  
##  7 Appeal to Judge Add penalty                              13     4.51 
##  8 Appeal to Judge End                                       5     0    
##  9 Appeal to Judge Insert Date Appeal to Prefecture          1     0.286
## 10 Create Fine     Payment                                3443     1.33 
## # ℹ 37 more rows
…
